[{"id_User":1,"first_name":"Chiquia","last_name":"Sturm","email":"csturm0@360.cn","password":"FxkEPb33x","account":[{"id_account":1,"id_iban":"LU76 216K KFTR SRVF VPQY","balance":32543431.59},{"id_account":2,"id_iban":"NO64 0292 2783 294","balance":95138931.23},{"id_account":3,"id_iban":"NO92 0387 1765 121","balance":70799126.29}]},
{"id_User":2,"first_name":"Christabel","last_name":"Farryan","email":"cfarryan1@usatoday.com","password":"FBovhElpon","account":[{"id_account":1,"id_iban":"FR07 7048 5575 17BV 4RO7 IMDS G18","balance":52931599.34},{"id_account":2,"id_iban":"CH05 5233 9SJL OQ0R 1LUR B","balance":9202545.0},{"id_account":3,"id_iban":"SE48 2686 4681 9377 1035 1717","balance":69712556.05},{"id_account":4,"id_iban":"DE78 3143 1450 2936 2821 91","balance":72602230.66},{"id_account":5,"id_iban":"CR85 8170 9294 5854 3275 7","balance":40130597.11}]},
{"id_User":3,"first_name":"Percy","last_name":"Snaith","email":"psnaith2@amazonaws.com","password":"efzudejyIfLH","account":[{"id_account":1,"id_iban":"IT58 D062 6683 662J FHOW 7SM1 EQ9","balance":81337444.14}]},
{"id_User":4,"first_name":"Shirlee","last_name":"Jimes","email":"sjimes3@washingtonpost.com","password":"Fzf56CBTxz","account":[{"id_account":1,"id_iban":"GR40 6680 973G 40YL E7OO HHYN YER","balance":54527132.27},{"id_account":2,"id_iban":"IT06 Y019 3909 7424 BCGO FJNS JNT","balance":45141883.53},{"id_account":3,"id_iban":"BH68 UKMO IBYP QTNX TJPN NE","balance":81388456.75}]},
{"id_User":5,"first_name":"Raphaela","last_name":"Corkill","email":"rcorkill4@shinystat.com","password":"CNEIj5","account":[{"id_account":1,"id_iban":"ME97 2345 8809 7765 7699 92","balance":54021733.76},{"id_account":2,"id_iban":"MR68 4384 7737 6682 6651 6912 085","balance":62793531.52}]},
{"id_User":6,"first_name":"Piggy","last_name":"McGruar","email":"pmcgruar5@springer.com","password":"7Ca7ww8Gl","account":[{"id_account":1,"id_iban":"BA50 2207 7321 1038 3261","balance":32653751.24},{"id_account":2,"id_iban":"FR65 7355 4264 95KX KDQS JIVR F24","balance":7760396.0}]},
{"id_User":7,"first_name":"Annecorinne","last_name":"Greer","email":"agreer6@ameblo.jp","password":"6liZJ4uSrsDE","account":[{"id_account":1,"id_iban":"FR83 2036 4486 97DB T0MS FTAO H79","balance":91553634.62},{"id_account":2,"id_iban":"MU93 OFXX 9379 8107 7746 9942 241X KF","balance":15949739.32},{"id_account":3,"id_iban":"LT29 7299 4517 4783 9458","balance":14712021.32}]},
{"id_User":8,"first_name":"Minnnie","last_name":"Aizik","email":"maizik7@hexun.com","password":"CvX2mx","account":[{"id_account":1,"id_iban":"SM92 M368 4947 574I ANRG WPLT VTQ","balance":85471128.95},{"id_account":2,"id_iban":"MD87 TC0O BGHO PGSG HIDZ OWMH","balance":93036824.26}]},
{"id_User":9,"first_name":"Kerry","last_name":"Jarmaine","email":"kjarmaine8@plala.or.jp","password":"an9ph1eAfrS","account":[{"id_account":1,"id_iban":"MK85 2467 NCWD ZDCZ I28","balance":99172356.98},{"id_account":2,"id_iban":"FR31 5878 9925 670V RHVQ 8IRR 917","balance":69122245.67},{"id_account":3,"id_iban":"PL12 9915 2758 3197 4042 0065 4231","balance":70206351.63}]},
{"id_User":10,"first_name":"Reinaldo","last_name":"Balazot","email":"rbalazot9@cmu.edu","password":"6Xj34QOxBQk","account":[{"id_account":1,"id_iban":"HR38 9847 6950 3085 4030 6","balance":68647215.02}]}]